// Jest Snapshot v1, https://goo.gl/fbAQLP

exports[`Todo list Component should render correctly 1`] = `
Object {
  "asFragment": [Function],
  "baseElement": <body>
    <div>
      <ul
        class="todo-list-container"
      >
        <div
          class="tasks-container"
        >
          <div
            class="task-wrapper"
          >
            <span>
              1
            </span>
            <li>
              task1
            </li>
          </div>
          <div>
            <button
              class="button-container button"
              data-testid="deleteItemButtonId1"
            >
              <svg
                fill="white"
                height="24"
                viewBox="0 -960 960 960"
                width="24"
                xmlns="http://www.w3.org/2000/svg"
              >
                <path
                  d="M280-120q-33 0-56.5-23.5T200-200v-520h-40v-80h200v-40h240v40h200v80h-40v520q0 33-23.5 56.5T680-120H280Zm400-600H280v520h400v-520ZM360-280h80v-360h-80v360Zm160 0h80v-360h-80v360ZM280-720v520-520Z"
                />
              </svg>
            </button>
            <button
              class="button-container button"
            >
              <svg
                fill="white"
                height="24"
                viewBox="0 -960 960 960"
                width="24"
                xmlns="http://www.w3.org/2000/svg"
              >
                <path
                  d="M200-200h57l391-391-57-57-391 391v57Zm-80 80v-170l528-527q12-11 26.5-17t30.5-6q16 0 31 6t26 18l55 56q12 11 17.5 26t5.5 30q0 16-5.5 30.5T817-647L290-120H120Zm640-584-56-56 56 56Zm-141 85-28-29 57 57-29-28Z"
                />
              </svg>
            </button>
            <button
              class="button-container button"
              data-testid="checkItemButtonId1"
            >
              <svg
                data-testid="checkIconId1"
                fill="white"
                height="24"
                viewBox="0 -960 960 960"
                width="24"
                xmlns="http://www.w3.org/2000/svg"
              >
                <path
                  d="m424-296 282-282-56-56-226 226-114-114-56 56 170 170Zm56 216q-83 0-156-31.5T197-197q-54-54-85.5-127T80-480q0-83 31.5-156T197-763q54-54 127-85.5T480-880q83 0 156 31.5T763-763q54 54 85.5 127T880-480q0 83-31.5 156T763-197q-54 54-127 85.5T480-80Zm0-80q134 0 227-93t93-227q0-134-93-227t-227-93q-134 0-227 93t-93 227q0 134 93 227t227 93Zm0-320Z"
                />
              </svg>
            </button>
          </div>
        </div>
        <div
          class="tasks-container"
        >
          <div
            class="task-wrapper"
          >
            <span>
              2
            </span>
            <li>
              task2
            </li>
          </div>
          <div>
            <button
              class="button-container button"
              data-testid="deleteItemButtonId2"
            >
              <svg
                fill="white"
                height="24"
                viewBox="0 -960 960 960"
                width="24"
                xmlns="http://www.w3.org/2000/svg"
              >
                <path
                  d="M280-120q-33 0-56.5-23.5T200-200v-520h-40v-80h200v-40h240v40h200v80h-40v520q0 33-23.5 56.5T680-120H280Zm400-600H280v520h400v-520ZM360-280h80v-360h-80v360Zm160 0h80v-360h-80v360ZM280-720v520-520Z"
                />
              </svg>
            </button>
            <button
              class="button-container button"
            >
              <svg
                fill="white"
                height="24"
                viewBox="0 -960 960 960"
                width="24"
                xmlns="http://www.w3.org/2000/svg"
              >
                <path
                  d="M200-200h57l391-391-57-57-391 391v57Zm-80 80v-170l528-527q12-11 26.5-17t30.5-6q16 0 31 6t26 18l55 56q12 11 17.5 26t5.5 30q0 16-5.5 30.5T817-647L290-120H120Zm640-584-56-56 56 56Zm-141 85-28-29 57 57-29-28Z"
                />
              </svg>
            </button>
            <button
              class="button-container button"
              data-testid="checkItemButtonId2"
            >
              <svg
                data-testid="checkIconId2"
                fill="white"
                height="24"
                viewBox="0 -960 960 960"
                width="24"
                xmlns="http://www.w3.org/2000/svg"
              >
                <path
                  d="m424-296 282-282-56-56-226 226-114-114-56 56 170 170Zm56 216q-83 0-156-31.5T197-197q-54-54-85.5-127T80-480q0-83 31.5-156T197-763q54-54 127-85.5T480-880q83 0 156 31.5T763-763q54 54 85.5 127T880-480q0 83-31.5 156T763-197q-54 54-127 85.5T480-80Zm0-80q134 0 227-93t93-227q0-134-93-227t-227-93q-134 0-227 93t-93 227q0 134 93 227t227 93Zm0-320Z"
                />
              </svg>
            </button>
          </div>
        </div>
      </ul>
    </div>
  </body>,
  "container": <div>
    <ul
      class="todo-list-container"
    >
      <div
        class="tasks-container"
      >
        <div
          class="task-wrapper"
        >
          <span>
            1
          </span>
          <li>
            task1
          </li>
        </div>
        <div>
          <button
            class="button-container button"
            data-testid="deleteItemButtonId1"
          >
            <svg
              fill="white"
              height="24"
              viewBox="0 -960 960 960"
              width="24"
              xmlns="http://www.w3.org/2000/svg"
            >
              <path
                d="M280-120q-33 0-56.5-23.5T200-200v-520h-40v-80h200v-40h240v40h200v80h-40v520q0 33-23.5 56.5T680-120H280Zm400-600H280v520h400v-520ZM360-280h80v-360h-80v360Zm160 0h80v-360h-80v360ZM280-720v520-520Z"
              />
            </svg>
          </button>
          <button
            class="button-container button"
          >
            <svg
              fill="white"
              height="24"
              viewBox="0 -960 960 960"
              width="24"
              xmlns="http://www.w3.org/2000/svg"
            >
              <path
                d="M200-200h57l391-391-57-57-391 391v57Zm-80 80v-170l528-527q12-11 26.5-17t30.5-6q16 0 31 6t26 18l55 56q12 11 17.5 26t5.5 30q0 16-5.5 30.5T817-647L290-120H120Zm640-584-56-56 56 56Zm-141 85-28-29 57 57-29-28Z"
              />
            </svg>
          </button>
          <button
            class="button-container button"
            data-testid="checkItemButtonId1"
          >
            <svg
              data-testid="checkIconId1"
              fill="white"
              height="24"
              viewBox="0 -960 960 960"
              width="24"
              xmlns="http://www.w3.org/2000/svg"
            >
              <path
                d="m424-296 282-282-56-56-226 226-114-114-56 56 170 170Zm56 216q-83 0-156-31.5T197-197q-54-54-85.5-127T80-480q0-83 31.5-156T197-763q54-54 127-85.5T480-880q83 0 156 31.5T763-763q54 54 85.5 127T880-480q0 83-31.5 156T763-197q-54 54-127 85.5T480-80Zm0-80q134 0 227-93t93-227q0-134-93-227t-227-93q-134 0-227 93t-93 227q0 134 93 227t227 93Zm0-320Z"
              />
            </svg>
          </button>
        </div>
      </div>
      <div
        class="tasks-container"
      >
        <div
          class="task-wrapper"
        >
          <span>
            2
          </span>
          <li>
            task2
          </li>
        </div>
        <div>
          <button
            class="button-container button"
            data-testid="deleteItemButtonId2"
          >
            <svg
              fill="white"
              height="24"
              viewBox="0 -960 960 960"
              width="24"
              xmlns="http://www.w3.org/2000/svg"
            >
              <path
                d="M280-120q-33 0-56.5-23.5T200-200v-520h-40v-80h200v-40h240v40h200v80h-40v520q0 33-23.5 56.5T680-120H280Zm400-600H280v520h400v-520ZM360-280h80v-360h-80v360Zm160 0h80v-360h-80v360ZM280-720v520-520Z"
              />
            </svg>
          </button>
          <button
            class="button-container button"
          >
            <svg
              fill="white"
              height="24"
              viewBox="0 -960 960 960"
              width="24"
              xmlns="http://www.w3.org/2000/svg"
            >
              <path
                d="M200-200h57l391-391-57-57-391 391v57Zm-80 80v-170l528-527q12-11 26.5-17t30.5-6q16 0 31 6t26 18l55 56q12 11 17.5 26t5.5 30q0 16-5.5 30.5T817-647L290-120H120Zm640-584-56-56 56 56Zm-141 85-28-29 57 57-29-28Z"
              />
            </svg>
          </button>
          <button
            class="button-container button"
            data-testid="checkItemButtonId2"
          >
            <svg
              data-testid="checkIconId2"
              fill="white"
              height="24"
              viewBox="0 -960 960 960"
              width="24"
              xmlns="http://www.w3.org/2000/svg"
            >
              <path
                d="m424-296 282-282-56-56-226 226-114-114-56 56 170 170Zm56 216q-83 0-156-31.5T197-197q-54-54-85.5-127T80-480q0-83 31.5-156T197-763q54-54 127-85.5T480-880q83 0 156 31.5T763-763q54 54 85.5 127T880-480q0 83-31.5 156T763-197q-54 54-127 85.5T480-80Zm0-80q134 0 227-93t93-227q0-134-93-227t-227-93q-134 0-227 93t-93 227q0 134 93 227t227 93Zm0-320Z"
              />
            </svg>
          </button>
        </div>
      </div>
    </ul>
  </div>,
  "debug": [Function],
  "findAllByAltText": [Function],
  "findAllByDisplayValue": [Function],
  "findAllByLabelText": [Function],
  "findAllByPlaceholderText": [Function],
  "findAllByRole": [Function],
  "findAllByTestId": [Function],
  "findAllByText": [Function],
  "findAllByTitle": [Function],
  "findByAltText": [Function],
  "findByDisplayValue": [Function],
  "findByLabelText": [Function],
  "findByPlaceholderText": [Function],
  "findByRole": [Function],
  "findByTestId": [Function],
  "findByText": [Function],
  "findByTitle": [Function],
  "getAllByAltText": [Function],
  "getAllByDisplayValue": [Function],
  "getAllByLabelText": [Function],
  "getAllByPlaceholderText": [Function],
  "getAllByRole": [Function],
  "getAllByTestId": [Function],
  "getAllByText": [Function],
  "getAllByTitle": [Function],
  "getByAltText": [Function],
  "getByDisplayValue": [Function],
  "getByLabelText": [Function],
  "getByPlaceholderText": [Function],
  "getByRole": [Function],
  "getByTestId": [Function],
  "getByText": [Function],
  "getByTitle": [Function],
  "queryAllByAltText": [Function],
  "queryAllByDisplayValue": [Function],
  "queryAllByLabelText": [Function],
  "queryAllByPlaceholderText": [Function],
  "queryAllByRole": [Function],
  "queryAllByTestId": [Function],
  "queryAllByText": [Function],
  "queryAllByTitle": [Function],
  "queryByAltText": [Function],
  "queryByDisplayValue": [Function],
  "queryByLabelText": [Function],
  "queryByPlaceholderText": [Function],
  "queryByRole": [Function],
  "queryByTestId": [Function],
  "queryByText": [Function],
  "queryByTitle": [Function],
  "rerender": [Function],
  "unmount": [Function],
}
`;
